<?xml version="1.0" encoding="UTF-8" standalone="no"?>
<!-- Created with Inkscape (http://www.inkscape.org/) -->

<svg
   xmlns:dc="http://purl.org/dc/elements/1.1/"
   xmlns:cc="http://creativecommons.org/ns#"
   xmlns:rdf="http://www.w3.org/1999/02/22-rdf-syntax-ns#"
   xmlns:svg="http://www.w3.org/2000/svg"
   xmlns="http://www.w3.org/2000/svg"
   xmlns:xlink="http://www.w3.org/1999/xlink"
   xmlns:sodipodi="http://sodipodi.sourceforge.net/DTD/sodipodi-0.dtd"
   xmlns:inkscape="http://www.inkscape.org/namespaces/inkscape"
   version="1.0"
   width="48"
   height="48"
   id="svg2365"
   inkscape:version="0.91 r13725"
   sodipodi:docname="tryton-maintenance.svg">
  <metadata
     id="metadata199">
    <rdf:RDF>
      <cc:Work
         rdf:about="">
        <dc:format>image/svg+xml</dc:format>
        <dc:type
           rdf:resource="http://purl.org/dc/dcmitype/StillImage" />
      </cc:Work>
    </rdf:RDF>
  </metadata>
  <sodipodi:namedview
     pagecolor="#ffffff"
     bordercolor="#666666"
     borderopacity="1"
     objecttolerance="10"
     gridtolerance="10"
     guidetolerance="10"
     inkscape:pageopacity="0"
     inkscape:pageshadow="2"
     inkscape:window-width="1366"
     inkscape:window-height="746"
     id="namedview197"
     showgrid="false"
     inkscape:zoom="2"
     inkscape:cx="-0.48436826"
     inkscape:cy="21.353611"
     inkscape:window-x="0"
     inkscape:window-y="0"
     inkscape:window-maximized="1"
     inkscape:current-layer="g144" />
  <defs
     id="defs2367">
    <linearGradient
       id="linearGradient4811">
      <stop
         offset="0"
         style="stop-color:#8d8d8d;stop-opacity:1"
         id="stop4813" />
      <stop
         offset="0.2767916"
         style="stop-color:#e2dcdc;stop-opacity:1"
         id="stop4815" />
      <stop
         offset="0.71460712"
         style="stop-color:#ffffff;stop-opacity:1"
         id="stop4817" />
      <stop
         offset="0.74610692"
         style="stop-color:#dfd9df;stop-opacity:1"
         id="stop4819" />
      <stop
         offset="1"
         style="stop-color:#888888;stop-opacity:1"
         id="stop4821" />
    </linearGradient>
    <linearGradient
       id="linearGradient4590">
      <stop
         offset="0"
         style="stop-color:#ffffff;stop-opacity:0;"
         id="stop4592" />
      <stop
         id="stop4594"
         style="stop-color:#ffffff;stop-opacity:0;"
         offset="0.07235099" />
      <stop
         id="stop4596"
         style="stop-color:#ffffff;stop-opacity:0.78431374;"
         offset="0.16616645" />
      <stop
         id="stop4598"
         style="stop-color:#ffffff;stop-opacity:0;"
         offset="0.51676667" />
      <stop
         offset="1"
         style="stop-color:#ffffff;stop-opacity:0"
         id="stop4600" />
    </linearGradient>
    <linearGradient
       id="linearGradient4542">
      <stop
         style="stop-color:#f0f0f0;stop-opacity:1;"
         offset="0"
         id="stop4544" />
      <stop
         id="stop4554"
         offset="0.37961972"
         style="stop-color:#f0f0f0;stop-opacity:1;" />
      <stop
         id="stop4552"
         offset="0.74644578"
         style="stop-color:#ffffff;stop-opacity:1;" />
      <stop
         id="stop4550"
         offset="0.88744432"
         style="stop-color:#f0f0f0;stop-opacity:1;" />
      <stop
         style="stop-color:#f0f0f0;stop-opacity:1;"
         offset="1"
         id="stop4546" />
    </linearGradient>
    <linearGradient
       id="linearGradient4508">
      <stop
         style="stop-color:#646464;stop-opacity:1;"
         offset="0"
         id="stop4510" />
      <stop
         id="stop4518"
         offset="0.19075282"
         style="stop-color:#c8c8c8;stop-opacity:1;" />
      <stop
         id="stop4516"
         offset="0.7349816"
         style="stop-color:#646464;stop-opacity:1;" />
      <stop
         style="stop-color:#505050;stop-opacity:1;"
         offset="1"
         id="stop4512" />
    </linearGradient>
    <linearGradient
       id="linearGradient4497">
      <stop
         style="stop-color:#ffffff;stop-opacity:0.39215687;"
         offset="0"
         id="stop4499" />
      <stop
         style="stop-color:#ffffff;stop-opacity:0;"
         offset="1"
         id="stop4501" />
    </linearGradient>
    <linearGradient
       id="linearGradient4481">
      <stop
         id="stop4483"
         offset="0"
         style="stop-color:#ffffff;stop-opacity:0;" />
      <stop
         style="stop-color:#ffffff;stop-opacity:0;"
         offset="0.14760388"
         id="stop4485" />
      <stop
         style="stop-color:#ffffff;stop-opacity:0.78431374;"
         offset="0.24320102"
         id="stop4487" />
      <stop
         style="stop-color:#ffffff;stop-opacity:0;"
         offset="0.36145651"
         id="stop4489" />
      <stop
         id="stop4491"
         offset="1"
         style="stop-color:#ffffff;stop-opacity:0;" />
    </linearGradient>
    <linearGradient
       id="linearGradient4464">
      <stop
         style="stop-color:#969696;stop-opacity:1;"
         offset="0"
         id="stop4466" />
      <stop
         id="stop4476"
         offset="0.34608999"
         style="stop-color:#505050;stop-opacity:1;" />
      <stop
         id="stop4474"
         offset="0.57401121"
         style="stop-color:#6e6e6e;stop-opacity:1;" />
      <stop
         id="stop4472"
         offset="0.86594206"
         style="stop-color:#969696;stop-opacity:1;" />
      <stop
         style="stop-color:#505050;stop-opacity:1;"
         offset="1"
         id="stop4468" />
    </linearGradient>
    <linearGradient
       id="linearGradient4274">
      <stop
         offset="0"
         style="stop-color:#646464;stop-opacity:1;"
         id="stop4282" />
      <stop
         offset="1"
         style="stop-color:#646464;stop-opacity:0;"
         id="stop4284" />
    </linearGradient>
    <linearGradient
       id="linearGradient4264">
      <stop
         id="stop4266"
         style="stop-color:#dcdcdc;stop-opacity:1;"
         offset="0" />
      <stop
         id="stop4268"
         style="stop-color:#dcdcdc;stop-opacity:0;"
         offset="1" />
    </linearGradient>
    <linearGradient
       id="linearGradient4109">
      <stop
         id="stop4111"
         offset="0"
         style="stop-color:#000000;stop-opacity:0.39215687;" />
      <stop
         id="stop4113"
         offset="1"
         style="stop-color:#000000;stop-opacity:0;" />
    </linearGradient>
    <linearGradient
       id="linearGradient4087">
      <stop
         offset="0"
         style="stop-color:#646464;stop-opacity:1;"
         id="stop4089" />
      <stop
         offset="1"
         style="stop-color:#646464;stop-opacity:0;"
         id="stop4091" />
    </linearGradient>
    <inkscape:perspective
       sodipodi:type="inkscape:persp3d"
       inkscape:vp_x="0 : 64 : 1"
       inkscape:vp_y="0 : 1000 : 0"
       inkscape:vp_z="128 : 64 : 1"
       inkscape:persp3d-origin="64 : 42.666667 : 1"
       id="perspective201" />
    <filter
       x="-0.085532367"
       width="1.1710647"
       y="-0.10938701"
       height="1.218774"
       id="filter6906"
       color-interpolation-filters="sRGB">
      <feGaussianBlur
         inkscape:collect="always"
         stdDeviation="0.5212367"
         id="feGaussianBlur6908" />
    </filter>
    <clipPath
       id="clipPath6130">
      <path
         d="M 125.16669,12.099598 C 122.19641,9.254864 111.282,2.992388 109.84175,5.187905 c -1.73662,2.647316 8.0971,9.68305 11.90231,11.399234 1.3031,0.587714 4.41979,-3.532532 3.42263,-4.487541 z"
         id="path6132"
         style="fill:#e20071;fill-opacity:1;fill-rule:evenodd;stroke:none" />
    </clipPath>
    <linearGradient
       id="linearGradient3168">
      <stop
         id="stop3170"
         style="stop-color:#ffffff;stop-opacity:1"
         offset="0" />
      <stop
         id="stop3172"
         style="stop-color:#ffffff;stop-opacity:0"
         offset="1" />
    </linearGradient>
    <linearGradient
       x1="29.344007"
       y1="35.892609"
       x2="5.8861146"
       y2="54.610104"
       id="linearGradient6134"
       xlink:href="#linearGradient3168"
       gradientUnits="userSpaceOnUse"
       gradientTransform="matrix(-0.8205678,0.1491734,0.1491734,0.8205678,119.95493,-30.558073)" />
    <linearGradient
       id="linearGradient2878">
      <stop
         id="stop2880"
         style="stop-color:#ffffff;stop-opacity:1"
         offset="0" />
      <stop
         id="stop2882"
         style="stop-color:#ffffff;stop-opacity:0"
         offset="1" />
    </linearGradient>
    <radialGradient
       cx="47.794022"
       cy="43.680889"
       r="0.046902865"
       fx="47.817745"
       fy="43.681263"
       id="radialGradient2257"
       xlink:href="#linearGradient2878"
       gradientUnits="userSpaceOnUse"
       gradientTransform="matrix(1,0,0,140,0,-6071.644)" />
    <linearGradient
       id="linearGradient2926">
      <stop
         id="stop2928"
         style="stop-color:#ffffff;stop-opacity:1"
         offset="0" />
      <stop
         id="stop2934"
         style="stop-color:#ffffff;stop-opacity:0"
         offset="0.31868133" />
      <stop
         id="stop2930"
         style="stop-color:#ffffff;stop-opacity:0"
         offset="1" />
    </linearGradient>
    <radialGradient
       cx="59.887943"
       cy="-16.594898"
       r="15.014902"
       fx="59.887943"
       fy="-16.594898"
       id="radialGradient4868"
       xlink:href="#linearGradient2926"
       gradientUnits="userSpaceOnUse"
       gradientTransform="matrix(-2.2908472,-1.2912538,-0.4877278,0.8613771,257.00005,93.121214)"
       spreadMethod="reflect" />
    <linearGradient
       id="linearGradient2916">
      <stop
         id="stop2918"
         style="stop-color:#000000;stop-opacity:1"
         offset="0" />
      <stop
         id="stop2920"
         style="stop-color:#000000;stop-opacity:0"
         offset="1" />
    </linearGradient>
    <radialGradient
       cx="58.079144"
       cy="51.897194"
       r="15.014902"
       fx="60.050133"
       fy="51.985794"
       id="radialGradient4871"
       xlink:href="#linearGradient2916"
       gradientUnits="userSpaceOnUse"
       gradientTransform="matrix(-2.9412787,-1.1615663,-0.2846191,0.7136661,292.2596,68.533501)" />
    <linearGradient
       id="linearGradient2948">
      <stop
         id="stop2950"
         style="stop-color:#000000;stop-opacity:1"
         offset="0" />
      <stop
         id="stop2956"
         style="stop-color:#000000;stop-opacity:0"
         offset="0.14835165" />
      <stop
         id="stop2960"
         style="stop-color:#000000;stop-opacity:0.39607844"
         offset="0.42443547" />
      <stop
         id="stop2958"
         style="stop-color:#000000;stop-opacity:0.79061371"
         offset="0.57417583" />
      <stop
         id="stop2962"
         style="stop-color:#000000;stop-opacity:0.09386282"
         offset="0.78708792" />
      <stop
         id="stop2952"
         style="stop-color:#000000;stop-opacity:0"
         offset="1" />
    </linearGradient>
    <linearGradient
       x1="45.277409"
       y1="41.758987"
       x2="75.465431"
       y2="41.511894"
       id="linearGradient4874"
       xlink:href="#linearGradient2948"
       gradientUnits="userSpaceOnUse"
       gradientTransform="matrix(-0.9676045,-0.6692381,-0.6740154,0.9726479,196.65813,26.204038)" />
    <filter
       x="-0.081383675"
       width="1.1627673"
       y="-0.11701577"
       height="1.2340316"
       id="filter7303"
       color-interpolation-filters="sRGB">
      <feGaussianBlur
         inkscape:collect="always"
         stdDeviation="1.5574454"
         id="feGaussianBlur7305" />
    </filter>
    <clipPath
       id="clipPath6914">
      <path
         d="m 82.925411,-3.435412 -1.608519,-1.191903 c 0.522849,-11.067495 9.171738,-20.603215 22.621818,-22.256029 3.3472,0.424353 5.5593,6.169237 6.88688,9.944766 l 10.54667,3.578078 5.87361,4.357131 c -2.56833,5.111207 -5.64222,9.878481 -9.57227,14.063318 l -6.4593,-3.71208 -7.48772,-9.862628 C 97.52863,-10.498934 89.700195,-9.79438 82.925411,-3.435412 z"
         id="path6916"
         style="fill:#34176e;fill-opacity:1;fill-rule:evenodd;stroke:none" />
    </clipPath>
    <linearGradient
       id="linearGradient2938">
      <stop
         id="stop2940"
         style="stop-color:#000000;stop-opacity:1"
         offset="0" />
      <stop
         id="stop2942"
         style="stop-color:#000000;stop-opacity:0"
         offset="1" />
    </linearGradient>
    <linearGradient
       x1="61.870293"
       y1="33.318996"
       x2="61.870293"
       y2="40.550549"
       id="linearGradient4880"
       xlink:href="#linearGradient2938"
       gradientUnits="userSpaceOnUse"
       gradientTransform="matrix(-0.9676045,-0.6692381,-0.6740154,0.9726479,196.65813,26.204038)" />
    <linearGradient
       id="linearGradient2854">
      <stop
         id="stop2856"
         style="stop-color:#ffffff;stop-opacity:0;"
         offset="0" />
      <stop
         offset="0.125"
         style="stop-color:#ffffff;stop-opacity:0;"
         id="stop4588" />
      <stop
         offset="0.25"
         style="stop-color:#ffffff;stop-opacity:0.78431374;"
         id="stop4586" />
      <stop
         offset="0.5"
         style="stop-color:#ffffff;stop-opacity:0;"
         id="stop4584" />
      <stop
         id="stop2858"
         style="stop-color:#ffffff;stop-opacity:0"
         offset="1" />
    </linearGradient>
    <linearGradient
       x1="106.03028"
       y1="59.273457"
       x2="108.78728"
       y2="55.574818"
       id="linearGradient4888"
       xlink:href="#linearGradient2854"
       gradientUnits="userSpaceOnUse"
       gradientTransform="matrix(-0.9676045,-0.6692381,-0.6740154,0.9726479,196.65813,26.204038)" />
    <radialGradient
       cx="94.435982"
       cy="42.709927"
       r="16.633095"
       fx="94.435982"
       fy="42.709927"
       id="radialGradient4891"
       xlink:href="#linearGradient2830"
       gradientUnits="userSpaceOnUse"
       gradientTransform="matrix(-2.2134389,-1.5580054,-0.9195638,1.2855562,320.80105,101.437)" />
    <radialGradient
       cx="94.932045"
       cy="43.032188"
       r="16.633095"
       fx="94.932045"
       fy="43.032188"
       id="radialGradient4894"
       xlink:href="#linearGradient2830"
       gradientUnits="userSpaceOnUse"
       gradientTransform="matrix(-1.7759891,-0.8986225,-1.0601326,2.082617,285.11609,4.6753809)" />
    <radialGradient
       cx="93.747849"
       cy="43.102612"
       r="16.633095"
       fx="93.747849"
       fy="43.102612"
       id="radialGradient4897"
       xlink:href="#linearGradient2830"
       gradientUnits="userSpaceOnUse"
       gradientTransform="matrix(-1.7759891,-0.8986225,-1.0601326,2.082617,285.11609,4.6753809)" />
    <radialGradient
       cx="92.990265"
       cy="42.850105"
       r="16.633095"
       fx="92.990265"
       fy="42.850105"
       id="radialGradient4900"
       xlink:href="#linearGradient2830"
       gradientUnits="userSpaceOnUse"
       gradientTransform="matrix(-1.7759891,-0.8986225,-1.0601326,2.082617,285.11609,4.6753809)" />
    <linearGradient
       id="linearGradient2830">
      <stop
         id="stop2832"
         style="stop-color:#111111;stop-opacity:1"
         offset="0" />
      <stop
         id="stop2838"
         style="stop-color:#6e6e70;stop-opacity:1"
         offset="0.14285715" />
      <stop
         id="stop2864"
         style="stop-color:#101010;stop-opacity:1"
         offset="0.5714286" />
      <stop
         id="stop2834"
         style="stop-color:#0d0d0d;stop-opacity:1"
         offset="1" />
    </linearGradient>
    <radialGradient
       cx="92.496124"
       cy="43.249184"
       r="16.633095"
       fx="92.496124"
       fy="43.249184"
       id="radialGradient4903"
       xlink:href="#linearGradient2830"
       gradientUnits="userSpaceOnUse"
       gradientTransform="matrix(-1.7759891,-0.8986225,-1.0601326,2.082617,285.11609,4.6753809)" />
    <filter
       x="-0.059171364"
       width="1.1183428"
       y="-0.25424162"
       height="1.5084833"
       id="filter5739"
       color-interpolation-filters="sRGB">
      <feGaussianBlur
         inkscape:collect="always"
         stdDeviation="1.5280665"
         id="feGaussianBlur5741" />
    </filter>
    <clipPath
       id="clipPath5354">
      <path
         d="m 103.98397,-1.574449 c 1.36631,-0.217784 5.00076,-1.340215 2.18696,-4.117706 -29.997586,-21.599248 -54.17578,-12.631544 -63.234504,-6.467284 10.162526,-5.731586 35.835522,-9.765684 61.047544,10.58499 z"
         id="path5356"
         style="fill:#00583f;fill-opacity:1;fill-rule:evenodd;stroke:none" />
    </clipPath>
    <linearGradient
       id="linearGradient2803">
      <stop
         id="stop2809"
         style="stop-color:#e2dcdc;stop-opacity:1"
         offset="0" />
      <stop
         id="stop2811"
         style="stop-color:#ffffff;stop-opacity:1"
         offset="0.39074388" />
      <stop
         id="stop2813"
         style="stop-color:#dfd9df;stop-opacity:1"
         offset="0.82692307" />
      <stop
         id="stop2815"
         style="stop-color:#c3c3c3;stop-opacity:1"
         offset="1" />
    </linearGradient>
    <linearGradient
       x1="62.987843"
       y1="46.469597"
       x2="118.02947"
       y2="62.350033"
       id="linearGradient4910"
       xlink:href="#linearGradient2803"
       gradientUnits="userSpaceOnUse"
       gradientTransform="matrix(-0.9676045,-0.6692381,-0.6740154,0.9726479,196.65813,26.204038)" />
    <radialGradient
       cx="-67.615143"
       cy="84.213043"
       r="1.4498374"
       fx="-67.047073"
       fy="83.803413"
       id="radialGradient2231"
       xlink:href="#linearGradient2370"
       gradientUnits="userSpaceOnUse"
       gradientTransform="matrix(1,0,0,0.636364,0,30.62293)" />
    <radialGradient
       cx="-67.615143"
       cy="84.213043"
       r="1.4498374"
       fx="-67.047073"
       fy="83.803413"
       id="radialGradient2229"
       xlink:href="#linearGradient2370"
       gradientUnits="userSpaceOnUse"
       gradientTransform="matrix(1,0,0,0.636364,0,30.62293)" />
    <radialGradient
       cx="-67.615143"
       cy="84.213043"
       r="1.4498374"
       fx="-67.047073"
       fy="83.803413"
       id="radialGradient2227"
       xlink:href="#linearGradient2370"
       gradientUnits="userSpaceOnUse"
       gradientTransform="matrix(1,0,0,0.636364,0,30.62293)" />
    <radialGradient
       cx="-67.615143"
       cy="84.213043"
       r="1.4498374"
       fx="-67.047073"
       fy="83.803413"
       id="radialGradient2225"
       xlink:href="#linearGradient2370"
       gradientUnits="userSpaceOnUse"
       gradientTransform="matrix(1,0,0,0.636364,0,30.62293)" />
    <radialGradient
       cx="-67.615143"
       cy="84.213043"
       r="1.4498374"
       fx="-67.047073"
       fy="83.803413"
       id="radialGradient2223"
       xlink:href="#linearGradient2370"
       gradientUnits="userSpaceOnUse"
       gradientTransform="matrix(1,0,0,0.636364,0,30.62293)" />
    <radialGradient
       cx="-67.615143"
       cy="84.213043"
       r="1.4498374"
       fx="-67.047073"
       fy="83.803413"
       id="radialGradient2221"
       xlink:href="#linearGradient2370"
       gradientUnits="userSpaceOnUse"
       gradientTransform="matrix(1,0,0,0.636364,0,30.62293)" />
    <radialGradient
       cx="-67.615143"
       cy="84.213043"
       r="1.4498374"
       fx="-67.047073"
       fy="83.803413"
       id="radialGradient2219"
       xlink:href="#linearGradient2370"
       gradientUnits="userSpaceOnUse"
       gradientTransform="matrix(1,0,0,0.636364,0,30.62293)" />
    <radialGradient
       cx="-67.615143"
       cy="84.213043"
       r="1.4498374"
       fx="-67.047073"
       fy="83.803413"
       id="radialGradient2217"
       xlink:href="#linearGradient2370"
       gradientUnits="userSpaceOnUse"
       gradientTransform="matrix(1,0,0,0.636364,0,30.62293)" />
    <radialGradient
       cx="-67.615143"
       cy="84.213043"
       r="1.4498374"
       fx="-67.047073"
       fy="83.803413"
       id="radialGradient2215"
       xlink:href="#linearGradient2370"
       gradientUnits="userSpaceOnUse"
       gradientTransform="matrix(1,0,0,0.636364,0,30.62293)" />
    <radialGradient
       cx="-67.615143"
       cy="84.213043"
       r="1.4498374"
       fx="-67.047073"
       fy="83.803413"
       id="radialGradient2213"
       xlink:href="#linearGradient2370"
       gradientUnits="userSpaceOnUse"
       gradientTransform="matrix(1,0,0,0.636364,0,30.62293)" />
    <radialGradient
       cx="-67.615143"
       cy="84.213043"
       r="1.4498374"
       fx="-67.047073"
       fy="83.803413"
       id="radialGradient2211"
       xlink:href="#linearGradient2370"
       gradientUnits="userSpaceOnUse"
       gradientTransform="matrix(1,0,0,0.636364,0,30.62293)" />
    <radialGradient
       cx="-67.615143"
       cy="84.213043"
       r="1.4498374"
       fx="-67.047073"
       fy="83.803413"
       id="radialGradient2209"
       xlink:href="#linearGradient2370"
       gradientUnits="userSpaceOnUse"
       gradientTransform="matrix(1,0,0,0.636364,0,30.62293)" />
    <radialGradient
       cx="-67.615143"
       cy="84.213043"
       r="1.4498374"
       fx="-67.047073"
       fy="83.803413"
       id="radialGradient2207"
       xlink:href="#linearGradient2370"
       gradientUnits="userSpaceOnUse"
       gradientTransform="matrix(1,0,0,0.636364,0,30.62293)" />
    <radialGradient
       cx="-67.615143"
       cy="84.213043"
       r="1.4498374"
       fx="-67.047073"
       fy="83.803413"
       id="radialGradient2205"
       xlink:href="#linearGradient2370"
       gradientUnits="userSpaceOnUse"
       gradientTransform="matrix(1,0,0,0.636364,0,30.62293)" />
    <radialGradient
       cx="-67.615143"
       cy="84.213043"
       r="1.4498374"
       fx="-67.047073"
       fy="83.803413"
       id="radialGradient2203"
       xlink:href="#linearGradient2370"
       gradientUnits="userSpaceOnUse"
       gradientTransform="matrix(1,0,0,0.636364,0,30.62293)" />
    <radialGradient
       cx="-67.615143"
       cy="84.213043"
       r="1.4498374"
       fx="-67.047073"
       fy="83.803413"
       id="radialGradient2201"
       xlink:href="#linearGradient2370"
       gradientUnits="userSpaceOnUse"
       gradientTransform="matrix(1,0,0,0.636364,0,30.62293)" />
    <radialGradient
       cx="-67.615143"
       cy="84.213043"
       r="1.4498374"
       fx="-67.047073"
       fy="83.803413"
       id="radialGradient2199"
       xlink:href="#linearGradient2370"
       gradientUnits="userSpaceOnUse"
       gradientTransform="matrix(1,0,0,0.636364,0,30.62293)" />
    <radialGradient
       cx="-67.615143"
       cy="84.213043"
       r="1.4498374"
       fx="-67.047073"
       fy="83.803413"
       id="radialGradient2197"
       xlink:href="#linearGradient2370"
       gradientUnits="userSpaceOnUse"
       gradientTransform="matrix(1,0,0,0.636364,0,30.62293)" />
    <radialGradient
       cx="-67.615143"
       cy="84.213043"
       r="1.4498374"
       fx="-67.047073"
       fy="83.803413"
       id="radialGradient2195"
       xlink:href="#linearGradient2370"
       gradientUnits="userSpaceOnUse"
       gradientTransform="matrix(1,0,0,0.636364,0,30.62293)" />
    <radialGradient
       cx="-67.615143"
       cy="84.213043"
       r="1.4498374"
       fx="-67.047073"
       fy="83.803413"
       id="radialGradient2193"
       xlink:href="#linearGradient2370"
       gradientUnits="userSpaceOnUse"
       gradientTransform="matrix(1,0,0,0.636364,0,30.62293)" />
    <radialGradient
       cx="-67.615143"
       cy="84.213043"
       r="1.4498374"
       fx="-67.047073"
       fy="83.803413"
       id="radialGradient2191"
       xlink:href="#linearGradient2370"
       gradientUnits="userSpaceOnUse"
       gradientTransform="matrix(1,0,0,0.636364,0,30.62293)" />
    <radialGradient
       cx="-67.615143"
       cy="84.213043"
       r="1.4498374"
       fx="-67.047073"
       fy="83.803413"
       id="radialGradient2189"
       xlink:href="#linearGradient2370"
       gradientUnits="userSpaceOnUse"
       gradientTransform="matrix(1,0,0,0.636364,0,30.62293)" />
    <radialGradient
       cx="-67.615143"
       cy="84.213043"
       r="1.4498374"
       fx="-67.047073"
       fy="83.803413"
       id="radialGradient2187"
       xlink:href="#linearGradient2370"
       gradientUnits="userSpaceOnUse"
       gradientTransform="matrix(1,0,0,0.636364,0,30.62293)" />
    <radialGradient
       cx="-67.615143"
       cy="84.213043"
       r="1.4498374"
       fx="-67.047073"
       fy="83.803413"
       id="radialGradient2185"
       xlink:href="#linearGradient2370"
       gradientUnits="userSpaceOnUse"
       gradientTransform="matrix(1,0,0,0.636364,0,30.62293)" />
    <radialGradient
       cx="-67.615143"
       cy="84.213043"
       r="1.4498374"
       fx="-67.047073"
       fy="83.803413"
       id="radialGradient2183"
       xlink:href="#linearGradient2370"
       gradientUnits="userSpaceOnUse"
       gradientTransform="matrix(1,0,0,0.636364,0,30.62293)" />
    <radialGradient
       cx="-67.615143"
       cy="84.213043"
       r="1.4498374"
       fx="-67.047073"
       fy="83.803413"
       id="radialGradient2181"
       xlink:href="#linearGradient2370"
       gradientUnits="userSpaceOnUse"
       gradientTransform="matrix(1,0,0,0.636364,0,30.62293)" />
    <radialGradient
       cx="-67.615143"
       cy="84.213043"
       r="1.4498374"
       fx="-67.047073"
       fy="83.803413"
       id="radialGradient2179"
       xlink:href="#linearGradient2370"
       gradientUnits="userSpaceOnUse"
       gradientTransform="matrix(1,0,0,0.636364,0,30.62293)" />
    <radialGradient
       cx="-67.615143"
       cy="84.213043"
       r="1.4498374"
       fx="-67.047073"
       fy="83.803413"
       id="radialGradient2177"
       xlink:href="#linearGradient2370"
       gradientUnits="userSpaceOnUse"
       gradientTransform="matrix(1,0,0,0.636364,0,30.62293)" />
    <radialGradient
       cx="-67.615143"
       cy="84.213043"
       r="1.4498374"
       fx="-67.047073"
       fy="83.803413"
       id="radialGradient2175"
       xlink:href="#linearGradient2370"
       gradientUnits="userSpaceOnUse"
       gradientTransform="matrix(1,0,0,0.636364,0,30.62293)" />
    <radialGradient
       cx="-67.615143"
       cy="84.213043"
       r="1.4498374"
       fx="-67.047073"
       fy="83.803413"
       id="radialGradient2173"
       xlink:href="#linearGradient2370"
       gradientUnits="userSpaceOnUse"
       gradientTransform="matrix(1,0,0,0.636364,0,30.62293)" />
    <radialGradient
       cx="-67.615143"
       cy="84.213043"
       r="1.4498374"
       fx="-67.047073"
       fy="83.803413"
       id="radialGradient2171"
       xlink:href="#linearGradient2370"
       gradientUnits="userSpaceOnUse"
       gradientTransform="matrix(1,0,0,0.636364,0,30.62293)" />
    <radialGradient
       cx="-67.615143"
       cy="84.213043"
       r="1.4498374"
       fx="-67.047073"
       fy="83.803413"
       id="radialGradient2169"
       xlink:href="#linearGradient2370"
       gradientUnits="userSpaceOnUse"
       gradientTransform="matrix(1,0,0,0.636364,0,30.62293)" />
    <linearGradient
       id="linearGradient2370">
      <stop
         id="stop2378"
         style="stop-color:#000000;stop-opacity:1"
         offset="0" />
      <stop
         id="stop2374"
         style="stop-color:#2a2a2a;stop-opacity:0.29537368"
         offset="1" />
    </linearGradient>
    <radialGradient
       cx="-67.615143"
       cy="84.213043"
       r="1.4498374"
       fx="-67.047073"
       fy="83.803413"
       id="radialGradient2167"
       xlink:href="#linearGradient2370"
       gradientUnits="userSpaceOnUse"
       gradientTransform="matrix(1,0,0,0.636364,0,30.62293)" />
    <linearGradient
       x1="-66.905724"
       y1="78.000954"
       x2="-66.905724"
       y2="77.232819"
       id="linearGradient4946"
       xlink:href="#linearGradient2352"
       gradientUnits="userSpaceOnUse"
       gradientTransform="matrix(1.1764954,0,0,1.1833613,-4.7978353,-75.354716)" />
    <linearGradient
       x1="-74.01326"
       y1="49.46249"
       x2="-58.206917"
       y2="65.268829"
       id="linearGradient4952"
       xlink:href="#linearGradient2352"
       gradientUnits="userSpaceOnUse"
       gradientTransform="matrix(1.1764954,0,0,1.1833612,-4.797835,-79.665584)" />
    <linearGradient
       x1="36.909187"
       y1="75.415688"
       x2="38.451817"
       y2="75.479614"
       id="linearGradient4955"
       xlink:href="#linearGradient2322"
       gradientUnits="userSpaceOnUse"
       gradientTransform="matrix(0.983361,0.6663259,-0.6582589,0.9697357,55.439719,-32.927491)" />
    <linearGradient
       id="linearGradient2322">
      <stop
         id="stop2324"
         style="stop-color:#000000;stop-opacity:1"
         offset="0" />
      <stop
         id="stop2326"
         style="stop-color:#000000;stop-opacity:0"
         offset="1" />
    </linearGradient>
    <linearGradient
       x1="37.235054"
       y1="75.415688"
       x2="38.61475"
       y2="75.479614"
       id="linearGradient4958"
       xlink:href="#linearGradient2322"
       gradientUnits="userSpaceOnUse"
       gradientTransform="matrix(-0.9676045,-0.6692381,-0.6740154,0.9726479,144.44832,27.448631)" />
    <linearGradient
       x1="45.615768"
       y1="128.00496"
       x2="45.615768"
       y2="125.89983"
       id="linearGradient4961"
       xlink:href="#linearGradient2310"
       gradientUnits="userSpaceOnUse"
       gradientTransform="matrix(-0.9676045,-0.6692381,-0.6740154,0.9726479,144.54699,27.4304)" />
    <linearGradient
       id="linearGradient2310">
      <stop
         id="stop2312"
         style="stop-color:#020202;stop-opacity:1"
         offset="0" />
      <stop
         id="stop2314"
         style="stop-color:#020202;stop-opacity:0"
         offset="1" />
    </linearGradient>
    <linearGradient
       x1="45.24057"
       y1="61.083416"
       x2="45.24057"
       y2="62.415165"
       id="linearGradient4964"
       xlink:href="#linearGradient2310"
       gradientUnits="userSpaceOnUse"
       gradientTransform="matrix(-0.9676045,-0.6692381,-0.6740154,0.9726479,144.36527,27.463989)" />
    <linearGradient
       id="linearGradient3058">
      <stop
         id="stop3060"
         style="stop-color:#000000;stop-opacity:1;"
         offset="0" />
      <stop
         id="stop3066"
         style="stop-color:#333333;stop-opacity:1;"
         offset="0.32522252" />
      <stop
         id="stop3070"
         style="stop-color:#646464;stop-opacity:1;"
         offset="0.6670348" />
      <stop
         id="stop3068"
         style="stop-color:#333333;stop-opacity:1;"
         offset="0.91571385" />
      <stop
         id="stop3062"
         style="stop-color:#141414;stop-opacity:1;"
         offset="1" />
    </linearGradient>
    <linearGradient
       x1="34.91254"
       y1="94.734375"
       x2="55.089256"
       y2="94.734375"
       id="linearGradient4967"
       xlink:href="#linearGradient3058"
       gradientUnits="userSpaceOnUse"
       gradientTransform="matrix(-0.9676045,-0.6692381,-0.6740154,0.9726479,144.54699,27.4304)" />
    <linearGradient
       id="linearGradient2352">
      <stop
         id="stop2354"
         style="stop-color:#000000;stop-opacity:1"
         offset="0" />
      <stop
         id="stop2356"
         style="stop-color:#000000;stop-opacity:0"
         offset="1" />
    </linearGradient>
    <linearGradient
       x1="-66.905724"
       y1="77.09996"
       x2="-66.905724"
       y2="75.717079"
       id="linearGradient4949"
       xlink:href="#linearGradient2352"
       gradientUnits="userSpaceOnUse"
       gradientTransform="matrix(1.1764965,0,0,1.1833623,-4.7827195,-79.650397)" />
    <linearGradient
       id="linearGradient2334">
      <stop
         id="stop2336"
         style="stop-color:#8d8d8d;stop-opacity:1"
         offset="0" />
      <stop
         id="stop2342"
         style="stop-color:#e2dcdc;stop-opacity:1"
         offset="0.2767916" />
      <stop
         id="stop2348"
         style="stop-color:#ffffff;stop-opacity:1"
         offset="0.71460712" />
      <stop
         id="stop2344"
         style="stop-color:#dfd9df;stop-opacity:1"
         offset="0.80711305" />
      <stop
         id="stop2338"
         style="stop-color:#888888;stop-opacity:1"
         offset="1" />
    </linearGradient>
    <linearGradient
       x1="-70.588905"
       y1="67.754272"
       x2="-59.581383"
       y2="67.754272"
       id="linearGradient4970"
       xlink:href="#linearGradient2334"
       gradientUnits="userSpaceOnUse"
       gradientTransform="matrix(1.1764954,0,0,1.1833613,-4.7978353,-79.665581)" />
    <linearGradient
       id="linearGradient6959">
      <stop
         id="stop6961"
         style="stop-color:#000000;stop-opacity:1"
         offset="0" />
      <stop
         id="stop6963"
         style="stop-color:#000000;stop-opacity:0"
         offset="1" />
    </linearGradient>
    <linearGradient
       x1="0.16120911"
       y1="117.27959"
       x2="128.16121"
       y2="117.27959"
       id="linearGradient8078"
       xlink:href="#linearGradient6959"
       gradientUnits="userSpaceOnUse"
       gradientTransform="matrix(0.785268,-0.07367722,0.03946254,0.4492806,22.778321,70.710911)" />
    <linearGradient
       inkscape:collect="always"
       xlink:href="#linearGradient3168"
       id="linearGradient3121"
       gradientUnits="userSpaceOnUse"
       gradientTransform="matrix(-0.8205678,0.1491734,0.1491734,0.8205678,119.95493,-30.558073)"
       x1="29.344007"
       y1="35.892609"
       x2="5.8861146"
       y2="54.610104" />
    <radialGradient
       inkscape:collect="always"
       xlink:href="#linearGradient4109"
       id="radialGradient4141"
       gradientUnits="userSpaceOnUse"
       cx="33.273365"
       cy="19.609756"
       fx="33.273365"
       fy="19.609756"
       r="1.0220488" />
    <radialGradient
       inkscape:collect="always"
       xlink:href="#linearGradient4109"
       id="radialGradient4145"
       gradientUnits="userSpaceOnUse"
       cx="33.273365"
       cy="19.609756"
       fx="33.273365"
       fy="19.609756"
       r="1.0220488" />
    <radialGradient
       inkscape:collect="always"
       xlink:href="#linearGradient4109"
       id="radialGradient4149"
       gradientUnits="userSpaceOnUse"
       cx="33.273365"
       cy="19.609756"
       fx="33.273365"
       fy="19.609756"
       r="1.0220488" />
    <radialGradient
       inkscape:collect="always"
       xlink:href="#linearGradient4109"
       id="radialGradient4153"
       gradientUnits="userSpaceOnUse"
       cx="33.273365"
       cy="19.609756"
       fx="33.273365"
       fy="19.609756"
       r="1.0220488" />
    <radialGradient
       inkscape:collect="always"
       xlink:href="#linearGradient4109"
       id="radialGradient4157"
       gradientUnits="userSpaceOnUse"
       cx="33.273365"
       cy="19.609756"
       fx="33.273365"
       fy="19.609756"
       r="1.0220488" />
    <radialGradient
       inkscape:collect="always"
       xlink:href="#linearGradient4109"
       id="radialGradient4161"
       gradientUnits="userSpaceOnUse"
       cx="33.273365"
       cy="19.609756"
       fx="33.273365"
       fy="19.609756"
       r="1.0220488" />
    <radialGradient
       inkscape:collect="always"
       xlink:href="#linearGradient4109"
       id="radialGradient4165"
       gradientUnits="userSpaceOnUse"
       cx="33.273365"
       cy="19.609756"
       fx="33.273365"
       fy="19.609756"
       r="1.0220488" />
    <radialGradient
       inkscape:collect="always"
       xlink:href="#linearGradient4109"
       id="radialGradient4181"
       gradientUnits="userSpaceOnUse"
       cx="33.273365"
       cy="19.609756"
       fx="33.273365"
       fy="19.609756"
       r="1.0220488" />
    <linearGradient
       inkscape:collect="always"
       xlink:href="#linearGradient6959"
       id="linearGradient4881"
       gradientUnits="userSpaceOnUse"
       gradientTransform="matrix(0.22275557,-0.18507333,0.10507159,0.12800429,-47.303046,22.059712)"
       x1="0.16120911"
       y1="117.27959"
       x2="128.16121"
       y2="117.27959" />
    <linearGradient
       inkscape:collect="always"
       xlink:href="#linearGradient2334"
       id="linearGradient4883"
       gradientUnits="userSpaceOnUse"
       gradientTransform="matrix(0.43199441,0,0,0.43451548,67.06513,-23.53455)"
       x1="-70.588905"
       y1="67.754272"
       x2="-59.581383"
       y2="67.754272" />
    <linearGradient
       inkscape:collect="always"
       xlink:href="#linearGradient2352"
       id="linearGradient4885"
       gradientUnits="userSpaceOnUse"
       gradientTransform="matrix(0.43199481,0,0,0.43451585,67.07068,-23.528975)"
       x1="-66.905724"
       y1="77.09996"
       x2="-66.905724"
       y2="75.717079" />
    <linearGradient
       inkscape:collect="always"
       xlink:href="#linearGradient3058"
       id="linearGradient4887"
       gradientUnits="userSpaceOnUse"
       gradientTransform="matrix(-0.43198763,-0.00232579,-0.00272865,0.4345064,-19.362988,-16.29479)"
       x1="34.91254"
       y1="94.734375"
       x2="55.089256"
       y2="94.734375" />
    <linearGradient
       inkscape:collect="always"
       xlink:href="#linearGradient2310"
       id="linearGradient4889"
       gradientUnits="userSpaceOnUse"
       gradientTransform="matrix(-0.43198763,-0.00232579,-0.00272865,0.4345064,-19.411108,-16.246948)"
       x1="45.24057"
       y1="61.083416"
       x2="45.24057"
       y2="62.415165" />
    <linearGradient
       inkscape:collect="always"
       xlink:href="#linearGradient2310"
       id="linearGradient4891"
       gradientUnits="userSpaceOnUse"
       gradientTransform="matrix(-0.43198763,-0.00232579,-0.00272865,0.4345064,-18.88119,-12.360103)"
       x1="45.615768"
       y1="128.00496"
       x2="45.615768"
       y2="125.89983" />
    <linearGradient
       inkscape:collect="always"
       xlink:href="#linearGradient2322"
       id="linearGradient4893"
       gradientUnits="userSpaceOnUse"
       gradientTransform="matrix(-0.43198763,-0.00232579,-0.00272865,0.4345064,-7.5850568,-16.268815)"
       x1="37.235054"
       y1="75.415688"
       x2="38.61475"
       y2="75.479614" />
    <linearGradient
       inkscape:collect="always"
       xlink:href="#linearGradient2322"
       id="linearGradient4895"
       gradientUnits="userSpaceOnUse"
       gradientTransform="matrix(0.43616009,-0.00182235,0.00144382,0.43035827,-65.305218,-16.12322)"
       x1="36.909187"
       y1="75.415688"
       x2="38.451817"
       y2="75.479614" />
    <linearGradient
       inkscape:collect="always"
       xlink:href="#linearGradient2352"
       id="linearGradient4897"
       gradientUnits="userSpaceOnUse"
       gradientTransform="matrix(0.43199441,0,0,0.43451545,67.06513,-23.534551)"
       x1="-74.01326"
       y1="49.46249"
       x2="-58.206917"
       y2="65.268829" />
    <linearGradient
       inkscape:collect="always"
       xlink:href="#linearGradient2352"
       id="linearGradient4899"
       gradientUnits="userSpaceOnUse"
       gradientTransform="matrix(0.43199441,0,0,0.43451548,67.06513,-33.386966)"
       x1="-66.905724"
       y1="78.000954"
       x2="-66.905724"
       y2="77.232819" />
    <radialGradient
       inkscape:collect="always"
       xlink:href="#linearGradient2370"
       id="radialGradient4901"
       gradientUnits="userSpaceOnUse"
       gradientTransform="matrix(-0.44693391,-0.0024064,-0.00282294,0.44953947,-68.830875,-26.344739)"
       cx="-67.615143"
       cy="84.213043"
       fx="-67.047073"
       fy="83.803413"
       r="1.4498374" />
    <radialGradient
       inkscape:collect="always"
       xlink:href="#linearGradient2370"
       id="radialGradient4904"
       gradientUnits="userSpaceOnUse"
       gradientTransform="matrix(-0.44693391,-0.0024064,-0.00282294,0.44953947,-68.847243,-23.737715)"
       cx="-67.615143"
       cy="84.213043"
       fx="-67.047073"
       fy="83.803413"
       r="1.4498374" />
    <radialGradient
       inkscape:collect="always"
       xlink:href="#linearGradient2370"
       id="radialGradient4906"
       gradientUnits="userSpaceOnUse"
       gradientTransform="matrix(-0.44693391,-0.0024064,-0.00282294,0.44953947,-68.863605,-21.130691)"
       cx="-67.615143"
       cy="84.213043"
       fx="-67.047073"
       fy="83.803413"
       r="1.4498374" />
    <radialGradient
       inkscape:collect="always"
       xlink:href="#linearGradient2370"
       id="radialGradient4908"
       gradientUnits="userSpaceOnUse"
       gradientTransform="matrix(-0.44693391,-0.0024064,-0.00282294,0.44953947,-68.880003,-18.52362)"
       cx="-67.615143"
       cy="84.213043"
       fx="-67.047073"
       fy="83.803413"
       r="1.4498374" />
    <radialGradient
       inkscape:collect="always"
       xlink:href="#linearGradient2370"
       id="radialGradient4910"
       gradientUnits="userSpaceOnUse"
       gradientTransform="matrix(-0.44693391,-0.0024064,-0.00282294,0.44953947,-68.896366,-15.916598)"
       cx="-67.615143"
       cy="84.213043"
       fx="-67.047073"
       fy="83.803413"
       r="1.4498374" />
    <radialGradient
       inkscape:collect="always"
       xlink:href="#linearGradient2370"
       id="radialGradient4912"
       gradientUnits="userSpaceOnUse"
       gradientTransform="matrix(-0.44693391,-0.0024064,-0.00282294,0.44953947,-68.912752,-13.309542)"
       cx="-67.615143"
       cy="84.213043"
       fx="-67.047073"
       fy="83.803413"
       r="1.4498374" />
    <radialGradient
       inkscape:collect="always"
       xlink:href="#linearGradient2370"
       id="radialGradient4914"
       gradientUnits="userSpaceOnUse"
       gradientTransform="matrix(-0.44693391,-0.0024064,-0.00282294,0.44953947,-68.931847,-10.268005)"
       cx="-67.615143"
       cy="84.213043"
       fx="-67.047073"
       fy="83.803413"
       r="1.4498374" />
    <radialGradient
       inkscape:collect="always"
       xlink:href="#linearGradient2370"
       id="radialGradient4916"
       gradientUnits="userSpaceOnUse"
       gradientTransform="matrix(-0.44693391,-0.0024064,-0.00282294,0.44953947,-68.948206,-7.6609768)"
       cx="-67.615143"
       cy="84.213043"
       fx="-67.047073"
       fy="83.803413"
       r="1.4498374" />
    <radialGradient
       inkscape:collect="always"
       xlink:href="#linearGradient2370"
       id="radialGradient4918"
       gradientUnits="userSpaceOnUse"
       gradientTransform="matrix(-0.44693391,-0.0024064,-0.00282294,0.44953947,-68.964595,-5.0539194)"
       cx="-67.615143"
       cy="84.213043"
       fx="-67.047073"
       fy="83.803413"
       r="1.4498374" />
    <radialGradient
       inkscape:collect="always"
       xlink:href="#linearGradient2370"
       id="radialGradient4920"
       gradientUnits="userSpaceOnUse"
       gradientTransform="matrix(-0.44693391,-0.0024064,-0.00282294,0.44953947,-68.980956,-2.4468933)"
       cx="-67.615143"
       cy="84.213043"
       fx="-67.047073"
       fy="83.803413"
       r="1.4498374" />
    <radialGradient
       inkscape:collect="always"
       xlink:href="#linearGradient2370"
       id="radialGradient4922"
       gradientUnits="userSpaceOnUse"
       gradientTransform="matrix(-0.44693391,-0.0024064,-0.00282294,0.44953947,-68.980956,-2.4468933)"
       cx="-67.615143"
       cy="84.213043"
       fx="-67.047073"
       fy="83.803413"
       r="1.4498374" />
    <radialGradient
       inkscape:collect="always"
       xlink:href="#linearGradient2370"
       id="radialGradient4924"
       gradientUnits="userSpaceOnUse"
       gradientTransform="matrix(-0.44693391,-0.0024064,-0.00282294,0.44953947,-71.430992,-25.055182)"
       cx="-67.615143"
       cy="84.213043"
       fx="-67.047073"
       fy="83.803413"
       r="1.4498374" />
    <radialGradient
       inkscape:collect="always"
       xlink:href="#linearGradient2370"
       id="radialGradient4926"
       gradientUnits="userSpaceOnUse"
       gradientTransform="matrix(-0.44693391,-0.0024064,-0.00282294,0.44953947,-71.447366,-22.448168)"
       cx="-67.615143"
       cy="84.213043"
       fx="-67.047073"
       fy="83.803413"
       r="1.4498374" />
    <radialGradient
       inkscape:collect="always"
       xlink:href="#linearGradient2370"
       id="radialGradient4928"
       gradientUnits="userSpaceOnUse"
       gradientTransform="matrix(-0.44693391,-0.0024064,-0.00282294,0.44953947,-71.463723,-19.841115)"
       cx="-67.615143"
       cy="84.213043"
       fx="-67.047073"
       fy="83.803413"
       r="1.4498374" />
    <radialGradient
       inkscape:collect="always"
       xlink:href="#linearGradient2370"
       id="radialGradient4930"
       gradientUnits="userSpaceOnUse"
       gradientTransform="matrix(-0.44693391,-0.0024064,-0.00282294,0.44953947,-71.480113,-17.234059)"
       cx="-67.615143"
       cy="84.213043"
       fx="-67.047073"
       fy="83.803413"
       r="1.4498374" />
    <radialGradient
       inkscape:collect="always"
       xlink:href="#linearGradient2370"
       id="radialGradient4932"
       gradientUnits="userSpaceOnUse"
       gradientTransform="matrix(-0.44693391,-0.0024064,-0.00282294,0.44953947,-71.496473,-14.627032)"
       cx="-67.615143"
       cy="84.213043"
       fx="-67.047073"
       fy="83.803413"
       r="1.4498374" />
    <radialGradient
       inkscape:collect="always"
       xlink:href="#linearGradient2370"
       id="radialGradient4934"
       gradientUnits="userSpaceOnUse"
       gradientTransform="matrix(-0.44693391,-0.0024064,-0.00282294,0.44953947,-71.512859,-12.019977)"
       cx="-67.615143"
       cy="84.213043"
       fx="-67.047073"
       fy="83.803413"
       r="1.4498374" />
    <radialGradient
       inkscape:collect="always"
       xlink:href="#linearGradient2370"
       id="radialGradient4936"
       gradientUnits="userSpaceOnUse"
       gradientTransform="matrix(-0.44693391,-0.0024064,-0.00282294,0.44953947,-71.531954,-8.9784399)"
       cx="-67.615143"
       cy="84.213043"
       fx="-67.047073"
       fy="83.803413"
       r="1.4498374" />
    <radialGradient
       inkscape:collect="always"
       xlink:href="#linearGradient2370"
       id="radialGradient4938"
       gradientUnits="userSpaceOnUse"
       gradientTransform="matrix(-0.44693391,-0.0024064,-0.00282294,0.44953947,-71.548315,-6.3714146)"
       cx="-67.615143"
       cy="84.213043"
       fx="-67.047073"
       fy="83.803413"
       r="1.4498374" />
    <radialGradient
       inkscape:collect="always"
       xlink:href="#linearGradient2370"
       id="radialGradient4940"
       gradientUnits="userSpaceOnUse"
       gradientTransform="matrix(-0.44693391,-0.0024064,-0.00282294,0.44953947,-71.564705,-3.7643597)"
       cx="-67.615143"
       cy="84.213043"
       fx="-67.047073"
       fy="83.803413"
       r="1.4498374" />
    <radialGradient
       inkscape:collect="always"
       xlink:href="#linearGradient2370"
       id="radialGradient4942"
       gradientUnits="userSpaceOnUse"
       gradientTransform="matrix(-0.44693391,-0.0024064,-0.00282294,0.44953947,-71.581065,-1.1573312)"
       cx="-67.615143"
       cy="84.213043"
       fx="-67.047073"
       fy="83.803413"
       r="1.4498374" />
    <radialGradient
       inkscape:collect="always"
       xlink:href="#linearGradient2370"
       id="radialGradient4944"
       gradientUnits="userSpaceOnUse"
       gradientTransform="matrix(-0.44693391,-0.0024064,-0.00282294,0.44953947,-71.581065,-1.1573312)"
       cx="-67.615143"
       cy="84.213043"
       fx="-67.047073"
       fy="83.803413"
       r="1.4498374" />
    <radialGradient
       inkscape:collect="always"
       xlink:href="#linearGradient2370"
       id="radialGradient4946"
       gradientUnits="userSpaceOnUse"
       gradientTransform="matrix(-0.44693391,-0.0024064,-0.00282294,0.44953947,-66.247135,-25.027279)"
       cx="-67.615143"
       cy="84.213043"
       fx="-67.047073"
       fy="83.803413"
       r="1.4498374" />
    <radialGradient
       inkscape:collect="always"
       xlink:href="#linearGradient2370"
       id="radialGradient4948"
       gradientUnits="userSpaceOnUse"
       gradientTransform="matrix(-0.44693391,-0.0024064,-0.00282294,0.44953947,-66.26352,-22.420222)"
       cx="-67.615143"
       cy="84.213043"
       fx="-67.047073"
       fy="83.803413"
       r="1.4498374" />
    <radialGradient
       inkscape:collect="always"
       xlink:href="#linearGradient2370"
       id="radialGradient4950"
       gradientUnits="userSpaceOnUse"
       gradientTransform="matrix(-0.44693391,-0.0024064,-0.00282294,0.44953947,-66.279882,-19.813198)"
       cx="-67.615143"
       cy="84.213043"
       fx="-67.047073"
       fy="83.803413"
       r="1.4498374" />
    <radialGradient
       inkscape:collect="always"
       xlink:href="#linearGradient2370"
       id="radialGradient4952"
       gradientUnits="userSpaceOnUse"
       gradientTransform="matrix(-0.44693391,-0.0024064,-0.00282294,0.44953947,-66.296244,-17.206165)"
       cx="-67.615143"
       cy="84.213043"
       fx="-67.047073"
       fy="83.803413"
       r="1.4498374" />
    <radialGradient
       inkscape:collect="always"
       xlink:href="#linearGradient2370"
       id="radialGradient4954"
       gradientUnits="userSpaceOnUse"
       gradientTransform="matrix(-0.44693391,-0.0024064,-0.00282294,0.44953947,-66.312617,-14.599131)"
       cx="-67.615143"
       cy="84.213043"
       fx="-67.047073"
       fy="83.803413"
       r="1.4498374" />
    <radialGradient
       inkscape:collect="always"
       xlink:href="#linearGradient2370"
       id="radialGradient4956"
       gradientUnits="userSpaceOnUse"
       gradientTransform="matrix(-0.44693391,-0.0024064,-0.00282294,0.44953947,-66.329005,-11.992073)"
       cx="-67.615143"
       cy="84.213043"
       fx="-67.047073"
       fy="83.803413"
       r="1.4498374" />
    <radialGradient
       inkscape:collect="always"
       xlink:href="#linearGradient2370"
       id="radialGradient4958"
       gradientUnits="userSpaceOnUse"
       gradientTransform="matrix(-0.44693391,-0.0024064,-0.00282294,0.44953947,-66.348097,-8.950539)"
       cx="-67.615143"
       cy="84.213043"
       fx="-67.047073"
       fy="83.803413"
       r="1.4498374" />
    <radialGradient
       inkscape:collect="always"
       xlink:href="#linearGradient2370"
       id="radialGradient4960"
       gradientUnits="userSpaceOnUse"
       gradientTransform="matrix(-0.44693391,-0.0024064,-0.00282294,0.44953947,-66.364485,-6.3434821)"
       cx="-67.615143"
       cy="84.213043"
       fx="-67.047073"
       fy="83.803413"
       r="1.4498374" />
    <radialGradient
       inkscape:collect="always"
       xlink:href="#linearGradient2370"
       id="radialGradient4962"
       gradientUnits="userSpaceOnUse"
       gradientTransform="matrix(-0.44693391,-0.0024064,-0.00282294,0.44953947,-66.380847,-3.7364554)"
       cx="-67.615143"
       cy="84.213043"
       fx="-67.047073"
       fy="83.803413"
       r="1.4498374" />
    <radialGradient
       inkscape:collect="always"
       xlink:href="#linearGradient2370"
       id="radialGradient4964"
       gradientUnits="userSpaceOnUse"
       gradientTransform="matrix(-0.44693391,-0.0024064,-0.00282294,0.44953947,-66.397207,-1.1294263)"
       cx="-67.615143"
       cy="84.213043"
       fx="-67.047073"
       fy="83.803413"
       r="1.4498374" />
    <radialGradient
       inkscape:collect="always"
       xlink:href="#linearGradient2370"
       id="radialGradient4966"
       gradientUnits="userSpaceOnUse"
       gradientTransform="matrix(-0.44693391,-0.0024064,-0.00282294,0.44953947,-66.397207,-1.1294263)"
       cx="-67.615143"
       cy="84.213043"
       fx="-67.047073"
       fy="83.803413"
       r="1.4498374" />
    <linearGradient
       inkscape:collect="always"
       xlink:href="#linearGradient2803"
       id="linearGradient4968"
       gradientUnits="userSpaceOnUse"
       gradientTransform="matrix(-0.43198763,-0.00232579,-0.00272865,0.4345064,-3.6448227,-27.377767)"
       x1="62.987843"
       y1="46.469597"
       x2="118.02947"
       y2="62.350033" />
    <radialGradient
       inkscape:collect="always"
       xlink:href="#linearGradient2830"
       id="radialGradient4970"
       gradientUnits="userSpaceOnUse"
       gradientTransform="matrix(-0.72455736,0.09567649,0.11026705,0.85097187,18.529467,-52.324001)"
       cx="92.496124"
       cy="43.249184"
       fx="92.496124"
       fy="43.249184"
       r="16.633095" />
    <radialGradient
       inkscape:collect="always"
       xlink:href="#linearGradient2830"
       id="radialGradient4972"
       gradientUnits="userSpaceOnUse"
       gradientTransform="matrix(-0.72455736,0.09567649,0.11026705,0.85097187,18.529467,-52.324001)"
       cx="92.990265"
       cy="42.850105"
       fx="92.990265"
       fy="42.850105"
       r="16.633095" />
    <radialGradient
       inkscape:collect="always"
       xlink:href="#linearGradient2830"
       id="radialGradient4974"
       gradientUnits="userSpaceOnUse"
       gradientTransform="matrix(-0.72455736,0.09567649,0.11026705,0.85097187,18.529467,-52.324001)"
       cx="93.747849"
       cy="43.102612"
       fx="93.747849"
       fy="43.102612"
       r="16.633095" />
    <radialGradient
       inkscape:collect="always"
       xlink:href="#linearGradient2830"
       id="radialGradient4976"
       gradientUnits="userSpaceOnUse"
       gradientTransform="matrix(-0.72455736,0.09567649,0.11026705,0.85097187,18.529467,-52.324001)"
       cx="94.932045"
       cy="43.032188"
       fx="94.932045"
       fy="43.032188"
       r="16.633095" />
    <radialGradient
       inkscape:collect="always"
       xlink:href="#linearGradient2830"
       id="radialGradient4978"
       gradientUnits="userSpaceOnUse"
       gradientTransform="matrix(-0.99380601,-0.01353261,-0.01230958,0.58024089,49.399148,-30.389778)"
       cx="94.435982"
       cy="42.709927"
       fx="94.435982"
       fy="42.709927"
       r="16.633095" />
    <linearGradient
       inkscape:collect="always"
       xlink:href="#linearGradient2854"
       id="linearGradient4980"
       gradientUnits="userSpaceOnUse"
       gradientTransform="matrix(-0.43198763,-0.00232579,-0.00272865,0.4345064,-3.8215994,-27.466155)"
       x1="106.03028"
       y1="59.273457"
       x2="108.78728"
       y2="55.574818" />
    <linearGradient
       inkscape:collect="always"
       xlink:href="#linearGradient2938"
       id="linearGradient4982"
       gradientUnits="userSpaceOnUse"
       gradientTransform="matrix(-0.43198763,-0.00232579,-0.00272865,0.4345064,-3.8215994,-27.466155)"
       x1="61.870293"
       y1="33.318996"
       x2="61.870293"
       y2="40.550549" />
    <linearGradient
       inkscape:collect="always"
       xlink:href="#linearGradient2948"
       id="linearGradient4984"
       gradientUnits="userSpaceOnUse"
       gradientTransform="matrix(-0.43198763,-0.00232579,-0.00272865,0.4345064,-3.8215994,-27.466155)"
       x1="45.277409"
       y1="41.758987"
       x2="75.465431"
       y2="41.511894" />
    <radialGradient
       inkscape:collect="always"
       xlink:href="#linearGradient2916"
       id="radialGradient4986"
       gradientUnits="userSpaceOnUse"
       gradientTransform="matrix(-1.1322644,0.25747236,0.06163025,0.27530633,33.928869,-34.448241)"
       cx="58.079144"
       cy="51.897194"
       fx="60.050133"
       fy="51.985794"
       r="15.014902" />
    <radialGradient
       inkscape:collect="always"
       xlink:href="#linearGradient2926"
       id="radialGradient4988"
       gradientUnits="userSpaceOnUse"
       gradientTransform="matrix(-0.96198719,0.08336544,0.03067744,0.36217213,28.336873,-19.688121)"
       spreadMethod="reflect"
       cx="59.887943"
       cy="-16.594898"
       fx="59.887943"
       fy="-16.594898"
       r="15.014902" />
    <radialGradient
       inkscape:collect="always"
       xlink:href="#linearGradient2878"
       id="radialGradient4990"
       gradientUnits="userSpaceOnUse"
       gradientTransform="matrix(-4.7518638,-0.0255838,-0.38201046,60.830896,219.51167,-2664.0804)"
       cx="47.794022"
       cy="43.680889"
       fx="47.817745"
       fy="43.681263"
       r="0.046902865" />
    <linearGradient
       inkscape:collect="always"
       xlink:href="#linearGradient3168"
       id="linearGradient4992"
       gradientUnits="userSpaceOnUse"
       gradientTransform="matrix(-0.8205678,0.1491734,0.1491734,0.8205678,119.95493,-30.558073)"
       x1="29.344007"
       y1="35.892609"
       x2="5.8861146"
       y2="54.610104" />
    <linearGradient
       x1="0"
       y1="0"
       x2="1"
       y2="0"
       gradientUnits="userSpaceOnUse"
       gradientTransform="matrix(20.045898,0,0,-20.045898,454.54492,640.92578)"
       spreadMethod="pad"
       id="linearGradient494">
      <stop
         style="stop-opacity:1;stop-color:#ffffff"
         offset="0"
         id="stop496" />
      <stop
         style="stop-opacity:1;stop-color:#d1d1d9"
         offset="0.16740479"
         id="stop498" />
      <stop
         style="stop-opacity:1;stop-color:#d1d1d9"
         offset="0.244565"
         id="stop500" />
      <stop
         style="stop-opacity:1;stop-color:#f3f4f4"
         offset="0.90255784"
         id="stop502" />
      <stop
         style="stop-opacity:1;stop-color:#f3f4f4"
         offset="1"
         id="stop504" />
    </linearGradient>
    <linearGradient
       x1="0"
       y1="0"
       x2="1"
       y2="0"
       gradientUnits="userSpaceOnUse"
       gradientTransform="matrix(45.696289,0,0,-45.696289,441.73145,640.91797)"
       spreadMethod="pad"
       id="linearGradient470">
      <stop
         style="stop-opacity:1;stop-color:#3f3f3f"
         offset="0"
         id="stop472" />
      <stop
         style="stop-opacity:1;stop-color:#3f3f3f"
         offset="0.309645"
         id="stop474" />
      <stop
         style="stop-opacity:1;stop-color:#3f3f3f"
         offset="0.827411"
         id="stop476" />
      <stop
         style="stop-opacity:1;stop-color:#3f3f3f"
         offset="1"
         id="stop478" />
    </linearGradient>
    <linearGradient
       x1="0"
       y1="0"
       x2="1"
       y2="0"
       gradientUnits="userSpaceOnUse"
       gradientTransform="matrix(63.212891,0,0,-63.212891,431.81543,709.2627)"
       spreadMethod="pad"
       id="linearGradient444">
      <stop
         style="stop-opacity:1;stop-color:#ffffff"
         offset="0"
         id="stop446" />
      <stop
         style="stop-opacity:1;stop-color:#d1d1d9"
         offset="0.16740479"
         id="stop448" />
      <stop
         style="stop-opacity:1;stop-color:#d1d1d9"
         offset="0.244565"
         id="stop450" />
      <stop
         style="stop-opacity:1;stop-color:#f3f4f4"
         offset="0.90255784"
         id="stop452" />
      <stop
         style="stop-opacity:1;stop-color:#f3f4f4"
         offset="1"
         id="stop454" />
    </linearGradient>
    <radialGradient
       fx="0"
       fy="0"
       cx="0"
       cy="0"
       r="1"
       gradientUnits="userSpaceOnUse"
       gradientTransform="matrix(39.86676,0,0,-39.86676,462.77539,691.91797)"
       spreadMethod="pad"
       id="radialGradient418">
      <stop
         style="stop-opacity:1;stop-color:#ffbf00"
         offset="0"
         id="stop420" />
      <stop
         style="stop-opacity:1;stop-color:#ffbf00"
         offset="0.60748161"
         id="stop422" />
      <stop
         style="stop-opacity:1;stop-color:#ffa600"
         offset="0.858696"
         id="stop424" />
      <stop
         style="stop-opacity:1;stop-color:#ffa100"
         offset="0.983696"
         id="stop426" />
      <stop
         style="stop-opacity:1;stop-color:#ffa100"
         offset="1"
         id="stop428" />
    </radialGradient>
    <linearGradient
       x1="0"
       y1="0"
       x2="1"
       y2="0"
       gradientUnits="userSpaceOnUse"
       gradientTransform="matrix(23.989258,0,0,-23.989258,646.05566,643.1626)"
       spreadMethod="pad"
       id="linearGradient392">
      <stop
         style="stop-opacity:1;stop-color:#3f3f3f"
         offset="0"
         id="stop394" />
      <stop
         style="stop-opacity:1;stop-color:#8c8c8c"
         offset="0.05760003"
         id="stop396" />
      <stop
         style="stop-opacity:1;stop-color:#8c8c8c"
         offset="0.0706522"
         id="stop398" />
      <stop
         style="stop-opacity:1;stop-color:#292728"
         offset="0.25736983"
         id="stop400" />
      <stop
         style="stop-opacity:1;stop-color:#292728"
         offset="1"
         id="stop402" />
    </linearGradient>
    <radialGradient
       fx="0"
       fy="0"
       cx="0"
       cy="0"
       r="1"
       gradientUnits="userSpaceOnUse"
       gradientTransform="matrix(7.4395032,0,0,-7.4395032,671.87207,661.33691)"
       spreadMethod="pad"
       id="radialGradient366">
      <stop
         style="stop-opacity:1;stop-color:#ffbf00"
         offset="0"
         id="stop368" />
      <stop
         style="stop-opacity:1;stop-color:#ffbf00"
         offset="0.60748161"
         id="stop370" />
      <stop
         style="stop-opacity:1;stop-color:#ffa600"
         offset="0.858696"
         id="stop372" />
      <stop
         style="stop-opacity:1;stop-color:#ffa100"
         offset="0.983696"
         id="stop374" />
      <stop
         style="stop-opacity:1;stop-color:#ffa100"
         offset="1"
         id="stop376" />
    </radialGradient>
    <linearGradient
       x1="0"
       y1="0"
       x2="1"
       y2="0"
       gradientUnits="userSpaceOnUse"
       gradientTransform="matrix(3.6533124,-126.95185,-126.95185,-3.6533124,587.43457,759.49365)"
       spreadMethod="pad"
       id="linearGradient340">
      <stop
         style="stop-opacity:1;stop-color:#ffffff"
         offset="0"
         id="stop342" />
      <stop
         style="stop-opacity:1;stop-color:#d1d1d9"
         offset="0.16740479"
         id="stop344" />
      <stop
         style="stop-opacity:1;stop-color:#d1d1d9"
         offset="0.244565"
         id="stop346" />
      <stop
         style="stop-opacity:1;stop-color:#f3f4f4"
         offset="0.90255784"
         id="stop348" />
      <stop
         style="stop-opacity:1;stop-color:#f3f4f4"
         offset="1"
         id="stop350" />
    </linearGradient>
    <linearGradient
       x1="0"
       y1="0"
       x2="1"
       y2="0"
       gradientUnits="userSpaceOnUse"
       gradientTransform="matrix(89.399414,0,0,-89.399414,503.79687,640.93164)"
       spreadMethod="pad"
       id="linearGradient314">
      <stop
         style="stop-opacity:1;stop-color:#3f3f3f"
         offset="0"
         id="stop316" />
      <stop
         style="stop-opacity:1;stop-color:#8c8c8c"
         offset="0.05760003"
         id="stop318" />
      <stop
         style="stop-opacity:1;stop-color:#8c8c8c"
         offset="0.0706522"
         id="stop320" />
      <stop
         style="stop-opacity:1;stop-color:#292728"
         offset="0.25736983"
         id="stop322" />
      <stop
         style="stop-opacity:1;stop-color:#292728"
         offset="1"
         id="stop324" />
    </linearGradient>
    <linearGradient
       x1="0"
       y1="0"
       x2="1"
       y2="0"
       gradientUnits="userSpaceOnUse"
       gradientTransform="matrix(8.9042969,0,0,-8.9042969,492.52344,644.42285)"
       spreadMethod="pad"
       id="linearGradient288">
      <stop
         style="stop-opacity:1;stop-color:#3f3f3f"
         offset="0"
         id="stop290" />
      <stop
         style="stop-opacity:1;stop-color:#8c8c8c"
         offset="0.05760003"
         id="stop292" />
      <stop
         style="stop-opacity:1;stop-color:#8c8c8c"
         offset="0.0706522"
         id="stop294" />
      <stop
         style="stop-opacity:1;stop-color:#292728"
         offset="0.25736983"
         id="stop296" />
      <stop
         style="stop-opacity:1;stop-color:#292728"
         offset="1"
         id="stop298" />
    </linearGradient>
    <linearGradient
       x1="0"
       y1="0"
       x2="1"
       y2="0"
       gradientUnits="userSpaceOnUse"
       gradientTransform="matrix(11.691406,0,0,-11.691406,423.19238,644.41748)"
       spreadMethod="pad"
       id="linearGradient262">
      <stop
         style="stop-opacity:1;stop-color:#3f3f3f"
         offset="0"
         id="stop264" />
      <stop
         style="stop-opacity:1;stop-color:#8c8c8c"
         offset="0.05760003"
         id="stop266" />
      <stop
         style="stop-opacity:1;stop-color:#8c8c8c"
         offset="0.0706522"
         id="stop268" />
      <stop
         style="stop-opacity:1;stop-color:#292728"
         offset="0.25736983"
         id="stop270" />
      <stop
         style="stop-opacity:1;stop-color:#292728"
         offset="1"
         id="stop272" />
    </linearGradient>
    <linearGradient
       x1="0"
       y1="0"
       x2="1"
       y2="0"
       gradientUnits="userSpaceOnUse"
       gradientTransform="matrix(18.685547,0,0,-18.685547,609.89551,640.91699)"
       spreadMethod="pad"
       id="linearGradient202">
      <stop
         style="stop-opacity:1;stop-color:#ffffff"
         offset="0"
         id="stop204" />
      <stop
         style="stop-opacity:1;stop-color:#d1d1d9"
         offset="0.16740479"
         id="stop206" />
      <stop
         style="stop-opacity:1;stop-color:#d1d1d9"
         offset="0.244565"
         id="stop208" />
      <stop
         style="stop-opacity:1;stop-color:#f3f4f4"
         offset="0.90255784"
         id="stop210" />
      <stop
         style="stop-opacity:1;stop-color:#f3f4f4"
         offset="1"
         id="stop212" />
    </linearGradient>
    <linearGradient
       x1="0"
       y1="0"
       x2="1"
       y2="0"
       gradientUnits="userSpaceOnUse"
       gradientTransform="matrix(42.581055,0,0,-42.581055,597.93848,640.93164)"
       spreadMethod="pad"
       id="linearGradient178">
      <stop
         style="stop-opacity:1;stop-color:#3f3f3f"
         offset="0"
         id="stop180" />
      <stop
         style="stop-opacity:1;stop-color:#3f3f3f"
         offset="0.309645"
         id="stop182" />
      <stop
         style="stop-opacity:1;stop-color:#3f3f3f"
         offset="0.827411"
         id="stop184" />
      <stop
         style="stop-opacity:1;stop-color:#3f3f3f"
         offset="1"
         id="stop186" />
    </linearGradient>
    <radialGradient
       fx="0"
       fy="0"
       cx="0"
       cy="0"
       r="1"
       gradientUnits="userSpaceOnUse"
       gradientTransform="matrix(164.85588,0,0,-7.2595735,548.49707,618.72363)"
       spreadMethod="pad"
       id="radialGradient156">
      <stop
         style="stop-opacity:1;stop-color:#c3b5a9"
         offset="0"
         id="stop158" />
      <stop
         style="stop-opacity:1;stop-color:#c3b5a9"
         offset="0.11486409"
         id="stop160" />
      <stop
         style="stop-opacity:1;stop-color:#ffffff"
         offset="1"
         id="stop162" />
    </radialGradient>
    <linearGradient
       x1="0"
       y1="0"
       x2="1"
       y2="0"
       gradientUnits="userSpaceOnUse"
       gradientTransform="matrix(45.696289,0,0,-45.696289,441.73145,640.91797)"
       spreadMethod="pad"
       id="linearGradient470-4">
      <stop
         style="stop-opacity:1;stop-color:#3f3f3f"
         offset="0"
         id="stop472-8" />
      <stop
         style="stop-opacity:1;stop-color:#3f3f3f"
         offset="0.309645"
         id="stop474-3" />
      <stop
         style="stop-opacity:1;stop-color:#3f3f3f"
         offset="0.827411"
         id="stop476-6" />
      <stop
         style="stop-opacity:1;stop-color:#3f3f3f"
         offset="1"
         id="stop478-8" />
    </linearGradient>
    <linearGradient
       inkscape:collect="always"
       xlink:href="#linearGradient2334"
       id="linearGradient4807"
       x1="431.09766"
       y1="709.263"
       x2="495.52802"
       y2="709.263"
       gradientUnits="userSpaceOnUse" />
    <linearGradient
       inkscape:collect="always"
       xlink:href="#linearGradient4811"
       id="linearGradient4809"
       gradientUnits="userSpaceOnUse"
       x1="407.10913"
       y1="715.26013"
       x2="521.01581"
       y2="716.7594" />
    <filter
       inkscape:collect="always"
       style="color-interpolation-filters:sRGB"
       id="filter4893"
       x="-0.044526874"
       width="1.0890537"
       y="-0.52442756"
       height="2.0488551">
      <feGaussianBlur
         inkscape:collect="always"
         stdDeviation="2.9484936"
         id="feGaussianBlur4895" />
    </filter>
    <linearGradient
       inkscape:collect="always"
       xlink:href="#linearGradient2334"
       id="linearGradient4898"
       gradientUnits="userSpaceOnUse"
       x1="431.09766"
       y1="709.263"
       x2="495.52802"
       y2="709.263" />
    <linearGradient
       inkscape:collect="always"
       xlink:href="#linearGradient2334"
       id="linearGradient4900"
       gradientUnits="userSpaceOnUse"
       x1="431.09766"
       y1="709.263"
       x2="495.52802"
       y2="709.263" />
    <linearGradient
       inkscape:collect="always"
       xlink:href="#linearGradient2334"
       id="linearGradient4902"
       gradientUnits="userSpaceOnUse"
       x1="431.09766"
       y1="709.263"
       x2="495.52802"
       y2="709.263" />
  </defs>
  <g
     transform="matrix(0.13764712,0,0,-0.18762891,-51.083494,152.44629)"
     id="g144">
    <g
       id="g146">
      <g
         id="g152">
        <g
           id="g154">
          <path
             d="m 383.568,618.723 c 0,-4.013 73.847,-7.256 164.927,-7.256 l 0,0 c 91.09,0 164.93,3.243 164.93,7.256 l 0,0 c 0,4.012 -73.84,7.257 -164.93,7.257 l 0,0 c -91.08,0 -164.927,-3.245 -164.927,-7.257"
             style="fill:url(#radialGradient156);stroke:none"
             id="path164"
             inkscape:connector-curvature="0" />
        </g>
      </g>
    </g>
  </g>
  <g
     transform="matrix(0.17647467,0,0,-0.18762891,-45.030494,152.46435)"
     id="g458-9">
    <g
       id="g460-2">
      <g
         id="g466-8">
        <g
           id="g468-7">
          <path
             d="m 441.732,640.926 c 0,-12.632 10.216,-22.859 22.843,-22.859 l 0,0 c 12.612,0 22.852,10.227 22.852,22.859 l 0,0 c -0.011,12.62 -10.251,22.843 -22.852,22.843 l 0,0 c -12.622,0 -22.843,-10.229 -22.843,-22.843"
             style="fill:url(#linearGradient470-4);stroke:none"
             id="path480-4"
             inkscape:connector-curvature="0" />
        </g>
      </g>
    </g>
  </g>
  <g
     transform="matrix(0.17647467,0,0,-0.18762891,-72.380254,152.44629)"
     id="g190">
    <g
       id="g192">
      <g
         id="g198">
        <g
           id="g200">
          <path
             d="m 609.896,640.926 c 0,-5.154 4.191,-9.351 9.346,-9.351 l 0,0 c 5.143,0 9.339,4.207 9.339,9.351 l 0,0 c 0,5.155 -4.196,9.334 -9.339,9.334 l 0,0 c -5.155,0 -9.346,-4.191 -9.346,-9.334"
             style="fill:url(#linearGradient202);stroke:none"
             id="path214"
             inkscape:connector-curvature="0" />
        </g>
      </g>
    </g>
  </g>
  <g
     transform="matrix(0.17647467,0,0,-0.18762891,-72.380254,152.44629)"
     id="g250"
     style="stroke:#333333">
    <g
       id="g252"
       style="stroke:#333333">
      <g
         id="g258"
         style="stroke:#333333">
        <g
           id="g260"
           style="stroke:#333333">
          <path
             d="m 423.193,648.685 0,-8.535 11.532,0 c -0.235,1.265 -0.389,2.557 -0.389,3.897 l 0,0 c 0,1.575 0.213,3.133 0.548,4.638 l 0,0 -11.691,0 z"
             style="fill:url(#linearGradient262);stroke:#333333"
             id="path274"
             inkscape:connector-curvature="0" />
        </g>
      </g>
    </g>
  </g>
  <g
     transform="matrix(0.17647467,0,0,-0.18762891,-72.380254,152.44629)"
     id="g276">
    <g
       id="g278">
      <g
         id="g284">
        <g
           id="g286">
          <path
             d="m 492.523,648.697 c 0.248,-1.517 0.406,-3.062 0.406,-4.65 l 0,0 c 0,-1.323 -0.13,-2.616 -0.293,-3.897 l 0,0 8.792,0 0,8.535 0,0.012 -8.905,0 z"
             style="fill:url(#linearGradient288);stroke:none"
             id="path300"
             inkscape:connector-curvature="0" />
        </g>
      </g>
    </g>
  </g>
  <g
     transform="matrix(0.17647467,0,0,-0.18762891,-72.380254,152.44629)"
     id="g302"
     style="stroke:#333333">
    <g
       id="g304"
       style="stroke:#333333">
      <g
         id="g310"
         style="stroke:#333333">
        <g
           id="g312"
           style="stroke:#333333">
          <path
             d="m 503.797,644.059 0,-6.255 89.189,0 c -0.077,0.788 -0.113,1.552 -0.113,2.358 l 0,0 c 0,1.322 0.123,2.604 0.323,3.897 l 0,0 -89.399,0 z"
             style="fill:url(#linearGradient314);stroke:#333333"
             id="path326"
             inkscape:connector-curvature="0" />
        </g>
      </g>
    </g>
  </g>
  <g
     transform="matrix(0.17732986,0,0,-0.17732986,-72.727319,144.65557)"
     id="g328"
     style="stroke:#666666">
    <g
       id="g330"
       style="stroke:#666666"
       transform="matrix(0.99517739,0,0,1.0580784,1.9571701,-43.933497)">
      <g
         id="g336"
         style="stroke:#1a1a1a">
        <g
           id="g338"
           style="stroke:#1a1a1a">
          <path
             d="m 505.589,753.639 -0.004,-20.966 -1.788,0 0,-81.042 0,-5.796 89.705,0 c 2.609,11.954 13.285,20.96 26.029,20.96 l 0,0 c 11.673,0 21.618,-7.583 25.204,-18.07 l 0,0 1.046,-0.669 21.89,0 0,23.959 6.842,0 0,81.624 -168.924,0 z"
             style="fill:url(#linearGradient340);stroke:#1a1a1a"
             id="path352"
             inkscape:connector-curvature="0" />
        </g>
      </g>
      <rect
         style="opacity:0.9;fill:#ffffff;stroke:#333333;stroke-width:0;stroke-miterlimit:4;stroke-dasharray:none;filter:url(#filter4893)"
         id="rect4823"
         width="158.9239"
         height="13.493541"
         x="510.48505"
         y="-748.77008"
         transform="matrix(0.98254974,0,0,-1.4446905,10.669545,-335.51308)" />
    </g>
  </g>
  <g
     transform="matrix(0.17647467,0,0,-0.18762891,-72.380254,152.44629)"
     id="g354"
     style="stroke:#000000">
    <g
       id="g356"
       style="stroke:#000000">
      <g
         id="g362"
         style="stroke:#000000">
        <g
           id="g364"
           style="stroke:#000000">
          <path
             d="m 669.795,651.023 4.154,0 0,20.628 -4.154,0 0,-20.628 z"
             style="fill:url(#radialGradient366);stroke:#000000"
             id="path378"
             inkscape:connector-curvature="0" />
        </g>
      </g>
    </g>
  </g>
  <g
     transform="matrix(0.17647467,0,0,-0.18762891,-72.380254,152.44629)"
     id="g380"
     style="stroke:#333333">
    <g
       id="g382"
       style="stroke:#333333">
      <g
         id="g388"
         style="stroke:#333333">
        <g
           id="g390"
           style="stroke:#333333">
          <path
             d="m 646.056,646.286 c 0.218,-1.287 0.337,-2.568 0.337,-3.891 l 0,0 c 0,-0.805 -0.054,-1.582 -0.112,-2.356 l 0,0 23.764,0 0,6.247 -23.989,0 z"
             style="fill:url(#linearGradient392);stroke:#333333"
             id="path404"
             inkscape:connector-curvature="0" />
        </g>
      </g>
    </g>
  </g>
  <g
     transform="matrix(0.17647467,0,0,-0.18762891,-72.380254,152.44629)"
     id="g406"
     style="stroke:#1a1a1a">
    <g
       id="g408"
       style="stroke:#1a1a1a">
      <g
         id="g414"
         style="stroke:#1a1a1a">
        <g
           id="g416"
           style="stroke:#1a1a1a">
          <path
             d="m 441.567,732.817 -17.6,-38.556 0,-9.34 0,-33.902 0.012,0 12.98,0 c 3.131,12.314 14.282,21.443 27.533,21.443 l 0,0 c 13.278,0 24.427,-9.147 27.532,-21.443 l 0,0 9.558,0 0,81.798 -60.015,0 z"
             style="fill:url(#radialGradient418);stroke:#1a1a1a"
             id="path430"
             inkscape:connector-curvature="0" />
        </g>
      </g>
    </g>
  </g>
  <g
     transform="matrix(0.17647467,0,0,-0.18762891,-72.380254,152.44629)"
     id="g432"
     style="opacity:1;fill:url(#linearGradient4807);fill-opacity:1;stroke:#333333">
    <g
       id="g434"
       style="fill:url(#linearGradient4902);fill-opacity:1;stroke:#333333">
      <g
         id="g440"
         style="fill:url(#linearGradient4900);fill-opacity:1;stroke:#333333">
        <g
           id="g442"
           style="fill:url(#linearGradient4898);fill-opacity:1;stroke:#333333">
          <path
             d="m 444.606,726.602 -12.791,-34.678 22.901,0 17.146,14.416 23.166,0 0,20.262 -50.422,0 z"
             style="fill:url(#linearGradient4809);fill-opacity:1;stroke:#333333"
             id="path456"
             inkscape:connector-curvature="0" />
        </g>
      </g>
    </g>
  </g>
  <g
     transform="matrix(0.17647467,0,0,-0.18762891,-72.380254,152.44629)"
     id="g458">
    <g
       id="g460">
      <g
         id="g466">
        <g
           id="g468">
          <path
             d="m 441.732,640.926 c 0,-12.632 10.216,-22.859 22.843,-22.859 l 0,0 c 12.612,0 22.852,10.227 22.852,22.859 l 0,0 c -0.011,12.62 -10.251,22.843 -22.852,22.843 l 0,0 c -12.622,0 -22.843,-10.229 -22.843,-22.843"
             style="fill:url(#linearGradient470);stroke:none"
             id="path480"
             inkscape:connector-curvature="0" />
        </g>
      </g>
    </g>
  </g>
  <g
     transform="matrix(0.17647467,0,0,-0.18762891,-72.380254,152.44629)"
     id="g482">
    <g
       id="g484">
      <g
         id="g490">
        <g
           id="g492">
          <path
             d="m 454.545,640.926 c 0,-5.514 4.502,-10.016 10.03,-10.016 l 0,0 c 5.525,0 10.016,4.491 10.016,10.016 l 0,0 c 0,5.525 -4.48,10.016 -10.016,10.016 l 0,0 c -5.528,0 -10.03,-4.491 -10.03,-10.016"
             style="fill:url(#linearGradient494);stroke:none"
             id="path506"
             inkscape:connector-curvature="0" />
        </g>
      </g>
    </g>
  </g>
</svg>
